
Rings: (for cyclic dipeptide formation)
[cR1](-O)1=[nR1]-[cR1]-[cR1](-O)-[nR1]-[cR1]1

[cR1:1](-O)1=[nR1:3]-[cR1:4]-[cR1:5](-O)=[nR1:6]-[cR1:7]1

[cR1:1](-O)1=[nR1:3]-[cR1:4]-[cR1:5](-O)=[nR1:6]-[cR1:7]-1

[cR1:1](-[O:8])1=[nR1:3]-[cR1:4]-[cR1:5](-[O:9])=[nR1:6]-[cR1:7]-1

[cR1:1](=[O:8])1-[nR1:3]-[cR1:4]-[cR1:5](=[O:9])-[nR1:6]-[cR1:7]-1


[CR1:1](=[O:8])1-[NR1:3]-[CR1:4]-[CR1:5](=[O:9])-[NR1:6]-[CR1:7]-1







